{
 "https://recherche-entreprises.api.gouv.fr/search?{\"per_page\": 5, \"q\": \"LA MER PAULETTE Trouville-sur-Mer\"}": {
  "results": [
   {
    "siren": "909471096",
    "nom_complet": "LA MER - PAULETTE",
    "nom_raison_sociale": "LA MER - PAULETTE",
    "sigle": null,
    "nombre_etablissements": 2,
    "nombre_etablissements_ouverts": 2,
    "siege": {
     "activite_principale": "56.10A",
     "activite_principale_naf25": "56.11G",
     "activite_principale_registre_metier": null,
     "annee_tranche_effectif_salarie": null,
     "adresse": "20 RUE DES BAINS 14360 TROUVILLE-SUR-MER",
     "caractere_employeur": "N",
     "cedex": null,
     "code_pays_etranger": null,
     "code_postal": "14360",
     "commune": "14715",
     "complement_adresse": null,
     "coordonnees": "49.365772933,0.0823899536",
     "date_creation": "2022-01-21",
     "date_debut_activite": "2022-04-30",
     "date_fermeture": null,
     "date_mise_a_jour": null,
     "date_mise_a_jour_insee": "2026-04-29T13:15:15",
     "departement": "14",
     "distribution_speciale": null,
     "epci": "241400415",
     "est_siege": true,
     "etat_administratif": "A",
     "geo_adresse": null,
     "geo_id": null,
     "indice_repetition": null,
     "latitude": "49.365772933",
     "libelle_cedex": null,
     "libelle_commune": "TROUVILLE-SUR-MER",
     "libelle_commune_etranger": null,
     "libelle_pays_etranger": null,
     "libelle_voie": "DES BAINS",
     "liste_enseignes": null,
     "liste_finess": null,
     "liste_id_bio": null,
     "liste_idcc": null,
     "liste_id_organisme_formation": null,
     "liste_rge": null,
     "liste_uai": null,
     "longitude": "0.0823899536",
     "nom_commercial": null,
     "numero_voie": "20",
     "dernier_numero_voie": null,
     "region": "28",
     "siret": "90947109600018",
     "statut_diffusion_etablissement": "O",
     "tranche_effectif_salarie": "NN",
     "type_voie": "RUE"
    },
    "activite_principale": "56.10A",
    "activite_principale_naf25": "56.11G",
    "categorie_entreprise": "PME",
    "caractere_employeur": null,
    "annee_categorie_entreprise": "2023",
    "date_creation": "2022-01-21",
    "date_fermeture": null,
    "date_mise_a_jour": "2026-07-05T11:03:15",
    "date_mise_a_jour_insee": "2026-03-31T13:17:07",
    "date_mise_a_jour_rne": "2024-05-19T17:01:20",
    "dirigeants": [
     {
      "nom": "MEESE",
      "prenoms": "ALEXIS ADRIEN AIME",
      "annee_de_naissance": "1989",
      "date_de_naissance": "1989-07",
      "qualite": "Gérant",
      "nationalite": null,
      "type_dirigeant": "personne physique"
     }
    ],
    "etat_administratif": "A",
    "nature_juridique": "5499",
    "section_activite_principale": "I",
    "tranche_effectif_salarie": "03",
    "annee_tranche_effectif_salarie": "2023",
    "statut_diffusion": "O",
    "matching_etablissements": [
     {
      "activite_principale": "56.10A",
      "activite_principale_naf25": "56.11G",
      "ancien_siege": false,
      "annee_tranche_effectif_salarie": null,
      "adresse": "20 RUE DES BAINS 14360 TROUVILLE-SUR-MER",
      "caractere_employeur": "N",
      "code_postal": "14360",
      "commune": "14715",
      "date_creation": "2022-01-21",
      "date_debut_activite": "2022-04-30",
      "date_fermeture": null,
      "epci": "241400415",
      "est_siege": true,
      "etat_administratif": "A",
      "geo_id": null,
      "latitude": "49.365772933",
      "libelle_commune": "TROUVILLE-SUR-MER",
      "liste_enseignes": null,
      "liste_finess": null,
      "liste_id_bio": null,
      "liste_idcc": null,
      "liste_id_organisme_formation": null,
      "liste_rge": null,
      "liste_uai": null,
      "longitude": "0.0823899536",
      "nom_commercial": null,
      "region": "28",
      "siret": "90947109600018",
      "statut_diffusion_etablissement": "O",
      "tranche_effectif_salarie": "NN"
     },
     {
      "activite_principale": "56.10A",
      "activite_principale_naf25": "56.11G",
      "ancien_siege": false,
      "annee_tranche_effectif_salarie": "2023",
      "adresse": "16-18 16 RUE DES BAINS 14360 TROUVILLE-SUR-MER",
      "caractere_employeur": "O",
      "code_postal": "14360",
      "commune": "14715",
      "date_creation": "2022-04-01",
      "date_debut_activite": "2022-04-01",
      "date_fermeture": null,
      "epci": "241400415",
      "est_siege": false,
      "etat_administratif": "A",
      "geo_id": null,
      "latitude": "49.365707546",
      "libelle_commune": "TROUVILLE-SUR-MER",
      "liste_enseignes": [
       "LA MER PAULETTE"
      ],
      "liste_finess": null,
      "liste_id_bio": null,
      "liste_idcc": [
       "1979"
      ],
      "liste_id_organisme_formation": null,
      "liste_rge": null,
      "liste_uai": null,
      "longitude": "0.0823976487",
      "nom_commercial": "LA MER-PAULETTE",
      "region": "28",
      "siret": "90947109600026",
      "statut_diffusion_etablissement": "O",
      "tranche_effectif_salarie": "03"
     }
    ],
    "finances": {
     "2023": {
      "ca": 0,
      "resultat_net": 13202
     }
    },
    "complements": {
     "collectivite_territoriale": null,
     "convention_collective_renseignee": true,
     "liste_idcc": [
      "1979"
     ],
     "liste_finess_juridique": null,
     "egapro_renseignee": false,
     "est_achats_responsables": false,
     "est_alim_confiance": false,
     "est_association": false,
     "est_avocat": false,
     "est_bio": false,
     "est_entrepreneur_individuel": false,
     "est_entrepreneur_spectacle": false,
     "est_ess": false,
     "est_finess": false,
     "est_organisme_formation": false,
     "est_qualiopi": false,
     "liste_id_organisme_formation": null,
     "est_rge": false,
     "est_siae": false,
     "est_societe_mission": false,
     "est_uai": false,
     "est_patrimoine_vivant": false,
     "bilan_ges_renseigne": false,
     "identifiant_association": null,
     "statut_entrepreneur_spectacle": null,
     "type_siae": null,
     "a_aide_minimis": false,
     "a_aide_ademe": false,
     "est_administration": false,
     "est_service_public": null,
     "est_l100_3": null
    },
    "tva": [
     "FR16909471096"
    ]
   },
   {
    "siren": "831042460",
    "nom_complet": "CHEZ PAULETTE",
    "nom_raison_sociale": "CHEZ PAULETTE",
    "sigle": null,
    "nombre_etablissements": 2,
    "nombre_etablissements_ouverts": 0,
    "siege": {
     "activite_principale": "68.20B",
     "activite_principale_naf25": "68.20H",
     "activite_principale_registre_metier": null,
     "annee_tranche_effectif_salarie": null,
     "adresse": "RD 513 1716 ROUTE DE TROUVILLE 14600 PENNEDEPIE",
     "caractere_employeur": "N",
     "cedex": null,
     "code_pays_etranger": null,
     "code_postal": "14600",
     "commune": "14492",
     "complement_adresse": "RD 513",
     "coordonnees": "49.401454,0.1545750095",
     "date_creation": "2022-12-08",
     "date_debut_activite": "2025-11-21",
     "date_fermeture": "2025-11-21",
     "date_mise_a_jour": null,
     "date_mise_a_jour_insee": "2025-12-26T12:01:02",
     "departement": "14",
     "distribution_speciale": null,
     "epci": "200066827",
     "est_siege": true,
     "etat_administratif": "F",
     "geo_adresse": null,
     "geo_id": null,
     "indice_repetition": null,
     "latitude": "49.401454",
     "libelle_cedex": null,
     "libelle_commune": "PENNEDEPIE",
     "libelle_commune_etranger": null,
     "libelle_pays_etranger": null,
     "libelle_voie": "DE TROUVILLE",
     "liste_enseignes": null,
     "liste_finess": null,
     "liste_id_bio": null,
     "liste_idcc": null,
     "liste_id_organisme_formation": null,
     "liste_rge": null,
     "liste_uai": null,
     "longitude": "0.1545750095",
     "nom_commercial": null,
     "numero_voie": "1716",
     "dernier_numero_voie": null,
     "region": "28",
     "siret": "83104246000020",
     "statut_diffusion_etablissement": "O",
     "tranche_effectif_salarie": "NN",
     "type_voie": "ROUTE"
    },
    "activite_principale": "68.20B",
    "activite_principale_naf25": "68.20H",
    "categorie_entreprise": "PME",
    "caractere_employeur": null,
    "annee_categorie_entreprise": "2023",
    "date_creation": "2017-07-21",
    "date_fermeture": "2025-11-21",
    "date_mise_a_jour": "2026-07-05T10:31:42",
    "date_mise_a_jour_insee": "2025-12-26T12:01:02",
    "date_mise_a_jour_rne": "2024-05-19T17:01:20",
    "dirigeants": [
     {
      "nom": "LAVARDE",
      "prenoms": "CECILIA LYDIE YVETTE",
      "annee_de_naissance": "1981",
      "date_de_naissance": "1981-06",
      "qualite": "Président de SAS",
      "nationalite": null,
      "type_dirigeant": "personne physique"
     }
    ],
    "etat_administratif": "C",
    "nature_juridique": "5710",
    "section_activite_principale": "L",
    "tranche_effectif_salarie": "NN",
    "annee_tranche_effectif_salarie": null,
    "statut_diffusion": "O",
    "matching_etablissements": [
     {
      "activite_principale": "56.30Z",
      "activite_principale_naf25": null,
      "ancien_siege": true,
      "annee_tranche_effectif_salarie": null,
      "adresse": "20 RUE DES BAINS 14360 TROUVILLE-SUR-MER",
      "caractere_employeur": "N",
      "code_postal": "14360",
      "commune": "14715",
      "date_creation": "2017-07-21",
      "date_debut_activite": "2022-12-08",
      "date_fermeture": "2022-12-08",
      "epci": "241400415",
      "est_siege": false,
      "etat_administratif": "F",
      "geo_id": null,
      "latitude": "49.365772933",
      "libelle_commune": "TROUVILLE-SUR-MER",
      "liste_enseignes": [
       "CHEZ PAULETTE"
      ],
      "liste_finess": null,
      "liste_id_bio": null,
      "liste_idcc": null,
      "liste_id_organisme_formation": null,
      "liste_rge": null,
      "liste_uai": null,
      "longitude": "0.0823899536",
      "nom_commercial": null,
      "region": "28",
      "siret": "83104246000012",
      "statut_diffusion_etablissement": "O",
      "tranche_effectif_salarie": "NN"
     }
    ],
    "finances": null,
    "complements": {
     "collectivite_territoriale": null,
     "convention_collective_renseignee": false,
     "liste_idcc": null,
     "liste_finess_juridique": null,
     "egapro_renseignee": false,
     "est_achats_responsables": false,
     "est_alim_confiance": false,
     "est_association": false,
     "est_avocat": false,
     "est_bio": false,
     "est_entrepreneur_individuel": false,
     "est_entrepreneur_spectacle": false,
     "est_ess": false,
     "est_finess": false,
     "est_organisme_formation": false,
     "est_qualiopi": false,
     "liste_id_organisme_formation": null,
     "est_rge": false,
     "est_siae": false,
     "est_societe_mission": false,
     "est_uai": false,
     "est_patrimoine_vivant": false,
     "bilan_ges_renseigne": false,
     "identifiant_association": null,
     "statut_entrepreneur_spectacle": null,
     "type_siae": null,
     "a_aide_minimis": false,
     "a_aide_ademe": false,
     "est_administration": false,
     "est_service_public": null,
     "est_l100_3": null
    },
    "tva": null
   },
   {
    "siren": "843949355",
    "nom_complet": "CHEZ PAULETTE",
    "nom_raison_sociale": "CHEZ PAULETTE",
    "sigle": null,
    "nombre_etablissements": 1,
    "nombre_etablissements_ouverts": 0,
    "siege": {
     "activite_principale": "56.30Z",
     "activite_principale_naf25": null,
     "activite_principale_registre_metier": null,
     "annee_tranche_effectif_salarie": "2023",
     "adresse": "20 RUE DES BAINS 14360 TROUVILLE-SUR-MER",
     "caractere_employeur": "O",
     "cedex": null,
     "code_pays_etranger": null,
     "code_postal": "14360",
     "commune": "14715",
     "complement_adresse": null,
     "coordonnees": "49.365772933,0.0823899536",
     "date_creation": "2018-11-16",
     "date_debut_activite": "2024-03-01",
     "date_fermeture": "2024-03-01",
     "date_mise_a_jour": null,
     "date_mise_a_jour_insee": "2024-03-30T03:20:18",
     "departement": "14",
     "distribution_speciale": null,
     "epci": "241400415",
     "est_siege": true,
     "etat_administratif": "F",
     "geo_adresse": null,
     "geo_id": null,
     "indice_repetition": null,
     "latitude": "49.365772933",
     "libelle_cedex": null,
     "libelle_commune": "TROUVILLE-SUR-MER",
     "libelle_commune_etranger": null,
     "libelle_pays_etranger": null,
     "libelle_voie": "DES BAINS",
     "liste_enseignes": [
      "CHEZ PAULETTE"
     ],
     "liste_finess": null,
     "liste_id_bio": null,
     "liste_idcc": null,
     "liste_id_organisme_formation": null,
     "liste_rge": null,
     "liste_uai": null,
     "longitude": "0.0823899536",
     "nom_commercial": null,
     "numero_voie": "20",
     "dernier_numero_voie": null,
     "region": "28",
     "siret": "84394935500013",
     "statut_diffusion_etablissement": "O",
     "tranche_effectif_salarie": "02",
     "type_voie": "RUE"
    },
    "activite_principale": "56.30Z",
    "activite_principale_naf25": null,
    "categorie_entreprise": "PME",
    "caractere_employeur": null,
    "annee_categorie_entreprise": "2023",
    "date_creation": "2018-11-16",
    "date_fermeture": null,
    "date_mise_a_jour": "2026-07-05T10:39:28",
    "date_mise_a_jour_insee": "2024-03-22T14:26:06",
    "date_mise_a_jour_rne": "2024-05-19T17:01:20",
    "dirigeants": [],
    "etat_administratif": "A",
    "nature_juridique": "5499",
    "section_activite_principale": "I",
    "tranche_effectif_salarie": "02",
    "annee_tranche_effectif_salarie": "2023",
    "statut_diffusion": "O",
    "matching_etablissements": [
     {
      "activite_principale": "56.30Z",
      "activite_principale_naf25": null,
      "ancien_siege": false,
      "annee_tranche_effectif_salarie": "2023",
      "adresse": "20 RUE DES BAINS 14360 TROUVILLE-SUR-MER",
      "caractere_employeur": "O",
      "code_postal": "14360",
      "commune": "14715",
      "date_creation": "2018-11-16",
      "date_debut_activite": "2024-03-01",
      "date_fermeture": "2024-03-01",
      "epci": "241400415",
      "est_siege": true,
      "etat_administratif": "F",
      "geo_id": null,
      "latitude": "49.365772933",
      "libelle_commune": "TROUVILLE-SUR-MER",
      "liste_enseignes": [
       "CHEZ PAULETTE"
      ],
      "liste_finess": null,
      "liste_id_bio": null,
      "liste_idcc": null,
      "liste_id_organisme_formation": null,
      "liste_rge": null,
      "liste_uai": null,
      "longitude": "0.0823899536",
      "nom_commercial": null,
      "region": "28",
      "siret": "84394935500013",
      "statut_diffusion_etablissement": "O",
      "tranche_effectif_salarie": "02"
     }
    ],
    "finances": {
     "2023": {
      "ca": 0,
      "resultat_net": -5174
     }
    },
    "complements": {
     "collectivite_territoriale": null,
     "convention_collective_renseignee": false,
     "liste_idcc": null,
     "liste_finess_juridique": null,
     "egapro_renseignee": false,
     "est_achats_responsables": false,
     "est_alim_confiance": false,
     "est_association": false,
     "est_avocat": false,
     "est_bio": false,
     "est_entrepreneur_individuel": false,
     "est_entrepreneur_spectacle": false,
     "est_ess": false,
     "est_finess": false,
     "est_organisme_formation": false,
     "est_qualiopi": false,
     "liste_id_organisme_formation": null,
     "est_rge": false,
     "est_siae": false,
     "est_societe_mission": false,
     "est_uai": false,
     "est_patrimoine_vivant": false,
     "bilan_ges_renseigne": false,
     "identifiant_association": null,
     "statut_entrepreneur_spectacle": null,
     "type_siae": null,
     "a_aide_minimis": false,
     "a_aide_ademe": false,
     "est_administration": false,
     "est_service_public": null,
     "est_l100_3": null
    },
    "tva": null
   },
   {
    "siren": "780769030",
    "nom_complet": "PAULETTE BINOIS",
    "nom_raison_sociale": null,
    "sigle": null,
    "nombre_etablissements": 1,
    "nombre_etablissements_ouverts": 0,
    "siege": {
     "activite_principale": "84.11",
     "activite_principale_naf25": null,
     "activite_principale_registre_metier": null,
     "annee_tranche_effectif_salarie": null,
     "adresse": "18 RUE AMIRAL DE MAIGRET 14360 TROUVILLE-SUR-MER",
     "caractere_employeur": "N",
     "cedex": null,
     "code_pays_etranger": null,
     "code_postal": "14360",
     "commune": "14715",
     "complement_adresse": null,
     "coordonnees": "49.366373325,0.0813053693",
     "date_creation": null,
     "date_debut_activite": "1989-06-30",
     "date_fermeture": "1989-06-30",
     "date_mise_a_jour": null,
     "date_mise_a_jour_insee": "2024-03-30T14:33:25",
     "departement": "14",
     "distribution_speciale": null,
     "epci": "241400415",
     "est_siege": true,
     "etat_administratif": "F",
     "geo_adresse": null,
     "geo_id": null,
     "indice_repetition": null,
     "latitude": "49.366373325",
     "libelle_cedex": null,
     "libelle_commune": "TROUVILLE-SUR-MER",
     "libelle_commune_etranger": null,
     "libelle_pays_etranger": null,
     "libelle_voie": "AMIRAL DE MAIGRET",
     "liste_enseignes": null,
     "liste_finess": null,
     "liste_id_bio": null,
     "liste_idcc": null,
     "liste_id_organisme_formation": null,
     "liste_rge": null,
     "liste_uai": null,
     "longitude": "0.0813053693",
     "nom_commercial": null,
     "numero_voie": "18",
     "dernier_numero_voie": null,
     "region": "28",
     "siret": "78076903000013",
     "statut_diffusion_etablissement": "O",
     "tranche_effectif_salarie": "NN",
     "type_voie": "RUE"
    },
    "activite_principale": "84.11",
    "activite_principale_naf25": null,
    "categorie_entreprise": null,
    "caractere_employeur": null,
    "annee_categorie_entreprise": null,
    "date_creation": null,
    "date_fermeture": "1989-06-30",
    "date_mise_a_jour": "2026-07-05T10:04:59",
    "date_mise_a_jour_insee": "2024-03-22T14:26:06",
    "date_mise_a_jour_rne": "2024-05-19T17:01:20",
    "dirigeants": [
     {
      "nom": "BINOIS",
      "prenoms": "PAULETTE",
      "annee_de_naissance": null,
      "date_de_naissance": null,
      "qualite": null,
      "nationalite": null,
      "type_dirigeant": "personne physique"
     }
    ],
    "etat_administratif": "C",
    "nature_juridique": "1000",
    "section_activite_principale": "O",
    "tranche_effectif_salarie": "NN",
    "annee_tranche_effectif_salarie": null,
    "statut_diffusion": "O",
    "matching_etablissements": [
     {
      "activite_principale": "84.11",
      "activite_principale_naf25": null,
      "ancien_siege": false,
      "annee_tranche_effectif_salarie": null,
      "adresse": "18 RUE AMIRAL DE MAIGRET 14360 TROUVILLE-SUR-MER",
      "caractere_employeur": "N",
      "code_postal": "14360",
      "commune": "14715",
      "date_creation": null,
      "date_debut_activite": "1989-06-30",
      "date_fermeture": "1989-06-30",
      "epci": "241400415",
      "est_siege": true,
      "etat_administratif": "F",
      "geo_id": null,
      "latitude": "49.366373325",
      "libelle_commune": "TROUVILLE-SUR-MER",
      "liste_enseignes": null,
      "liste_finess": null,
      "liste_id_bio": null,
      "liste_idcc": null,
      "liste_id_organisme_formation": null,
      "liste_rge": null,
      "liste_uai": null,
      "longitude": "0.0813053693",
      "nom_commercial": null,
      "region": "28",
      "siret": "78076903000013",
      "statut_diffusion_etablissement": "O",
      "tranche_effectif_salarie": "NN"
     }
    ],
    "finances": null,
    "complements": {
     "collectivite_territoriale": null,
     "convention_collective_renseignee": false,
     "liste_idcc": null,
     "liste_finess_juridique": null,
     "egapro_renseignee": false,
     "est_achats_responsables": false,
     "est_alim_confiance": false,
     "est_association": false,
     "est_avocat": false,
     "est_bio": false,
     "est_entrepreneur_individuel": true,
     "est_entrepreneur_spectacle": false,
     "est_ess": false,
     "est_finess": false,
     "est_organisme_formation": false,
     "est_qualiopi": false,
     "liste_id_organisme_formation": null,
     "est_rge": false,
     "est_siae": false,
     "est_societe_mission": false,
     "est_uai": false,
     "est_patrimoine_vivant": false,
     "bilan_ges_renseigne": false,
     "identifiant_association": null,
     "statut_entrepreneur_spectacle": null,
     "type_siae": null,
     "a_aide_minimis": false,
     "a_aide_ademe": false,
     "est_administration": false,
     "est_service_public": null,
     "est_l100_3": null
    },
    "tva": null
   },
   {
    "siren": "304868375",
    "nom_complet": "PAULETTE LECUYER (DE LANGHE)",
    "nom_raison_sociale": null,
    "sigle": null,
    "nombre_etablissements": 1,
    "nombre_etablissements_ouverts": 0,
    "siege": {
     "activite_principale": "52.4C",
     "activite_principale_naf25": null,
     "activite_principale_registre_metier": null,
     "annee_tranche_effectif_salarie": null,
     "adresse": "4 RUE VICTOR HUGO 14360 TROUVILLE-SUR-MER",
     "caractere_employeur": "N",
     "cedex": null,
     "code_pays_etranger": null,
     "code_postal": "14360",
     "commune": "14715",
     "complement_adresse": null,
     "coordonnees": "49.366149039,0.0808938641",
     "date_creation": "1984-07-10",
     "date_debut_activite": "2000-07-27",
     "date_fermeture": "2000-07-27",
     "date_mise_a_jour": null,
     "date_mise_a_jour_insee": "2024-03-30T00:50:25",
     "departement": "14",
     "distribution_speciale": null,
     "epci": "241400415",
     "est_siege": true,
     "etat_administratif": "F",
     "geo_adresse": null,
     "geo_id": null,
     "indice_repetition": null,
     "latitude": "49.366149039",
     "libelle_cedex": null,
     "libelle_commune": "TROUVILLE-SUR-MER",
     "libelle_commune_etranger": null,
     "libelle_pays_etranger": null,
     "libelle_voie": "VICTOR HUGO",
     "liste_enseignes": null,
     "liste_finess": null,
     "liste_id_bio": null,
     "liste_idcc": null,
     "liste_id_organisme_formation": null,
     "liste_rge": null,
     "liste_uai": null,
     "longitude": "0.0808938641",
     "nom_commercial": null,
     "numero_voie": "4",
     "dernier_numero_voie": null,
     "region": "28",
     "siret": "30486837500037",
     "statut_diffusion_etablissement": "O",
     "tranche_effectif_salarie": "NN",
     "type_voie": "RUE"
    },
    "activite_principale": "52.4C",
    "activite_principale_naf25": null,
    "categorie_entreprise": null,
    "caractere_employeur": null,
    "annee_categorie_entreprise": null,
    "date_creation": "1976-01-01",
    "date_fermeture": "2000-07-27",
    "date_mise_a_jour": "2026-07-05T08:15:54",
    "date_mise_a_jour_insee": "2024-03-22T14:26:06",
    "date_mise_a_jour_rne": "2024-05-19T17:01:20",
    "dirigeants": [
     {
      "nom": "LECUYER (DE LANGHE)",
      "prenoms": "PAULETTE",
      "annee_de_naissance": null,
      "date_de_naissance": null,
      "qualite": null,
      "nationalite": null,
      "type_dirigeant": "personne physique"
     }
    ],
    "etat_administratif": "C",
    "nature_juridique": "1000",
    "section_activite_principale": "H",
    "tranche_effectif_salarie": "NN",
    "annee_tranche_effectif_salarie": null,
    "statut_diffusion": "O",
    "matching_etablissements": [
     {
      "activite_principale": "52.4C",
      "activite_principale_naf25": null,
      "ancien_siege": false,
      "annee_tranche_effectif_salarie": null,
      "adresse": "4 RUE VICTOR HUGO 14360 TROUVILLE-SUR-MER",
      "caractere_employeur": "N",
      "code_postal": "14360",
      "commune": "14715",
      "date_creation": "1984-07-10",
      "date_debut_activite": "2000-07-27",
      "date_fermeture": "2000-07-27",
      "epci": "241400415",
      "est_siege": true,
      "etat_administratif": "F",
      "geo_id": null,
      "latitude": "49.366149039",
      "libelle_commune": "TROUVILLE-SUR-MER",
      "liste_enseignes": null,
      "liste_finess": null,
      "liste_id_bio": null,
      "liste_idcc": null,
      "liste_id_organisme_formation": null,
      "liste_rge": null,
      "liste_uai": null,
      "longitude": "0.0808938641",
      "nom_commercial": null,
      "region": "28",
      "siret": "30486837500037",
      "statut_diffusion_etablissement": "O",
      "tranche_effectif_salarie": "NN"
     }
    ],
    "finances": null,
    "complements": {
     "collectivite_territoriale": null,
     "convention_collective_renseignee": false,
     "liste_idcc": null,
     "liste_finess_juridique": null,
     "egapro_renseignee": false,
     "est_achats_responsables": false,
     "est_alim_confiance": false,
     "est_association": false,
     "est_avocat": false,
     "est_bio": false,
     "est_entrepreneur_individuel": true,
     "est_entrepreneur_spectacle": false,
     "est_ess": false,
     "est_finess": false,
     "est_organisme_formation": false,
     "est_qualiopi": false,
     "liste_id_organisme_formation": null,
     "est_rge": false,
     "est_siae": false,
     "est_societe_mission": false,
     "est_uai": false,
     "est_patrimoine_vivant": false,
     "bilan_ges_renseigne": false,
     "identifiant_association": null,
     "statut_entrepreneur_spectacle": null,
     "type_siae": null,
     "a_aide_minimis": false,
     "a_aide_ademe": false,
     "est_administration": false,
     "est_service_public": null,
     "est_l100_3": null
    },
    "tva": null
   }
  ],
  "total_results": 8,
  "page": 1,
  "per_page": 5,
  "total_pages": 2
 }
}