{
 "https://recherche-entreprises.api.gouv.fr/search?{\"per_page\": 5, \"q\": \"Lou Mas\"}": {
  "results": [
   {
    "siren": "424258044",
    "nom_complet": "LOU MAS",
    "nom_raison_sociale": "LOU MAS",
    "sigle": null,
    "nombre_etablissements": 2,
    "nombre_etablissements_ouverts": 2,
    "siege": {
     "activite_principale": "68.20B",
     "activite_principale_naf25": "68.20H",
     "activite_principale_registre_metier": null,
     "annee_tranche_effectif_salarie": null,
     "adresse": "2300 CENTER BOULEVARD INTERN HOUSE COPENHAGUE DANEMARK",
     "caractere_employeur": "N",
     "cedex": null,
     "code_pays_etranger": "99101",
     "code_postal": null,
     "commune": null,
     "complement_adresse": null,
     "coordonnees": null,
     "date_creation": "1995-01-01",
     "date_debut_activite": "2008-01-01",
     "date_fermeture": null,
     "date_mise_a_jour": null,
     "date_mise_a_jour_insee": "2025-12-05T23:43:41",
     "departement": null,
     "distribution_speciale": null,
     "epci": null,
     "est_siege": true,
     "etat_administratif": "A",
     "geo_adresse": null,
     "geo_id": null,
     "indice_repetition": null,
     "latitude": null,
     "libelle_cedex": null,
     "libelle_commune": null,
     "libelle_commune_etranger": "INTERN HOUSE COPENHAGUE",
     "libelle_pays_etranger": "DANEMARK",
     "libelle_voie": "CENTER BOULEVARD",
     "liste_enseignes": null,
     "liste_finess": null,
     "liste_id_bio": null,
     "liste_idcc": null,
     "liste_id_organisme_formation": null,
     "liste_rge": null,
     "liste_uai": null,
     "longitude": null,
     "nom_commercial": null,
     "numero_voie": "2300",
     "dernier_numero_voie": null,
     "region": null,
     "siret": "42425804400017",
     "statut_diffusion_etablissement": "O",
     "tranche_effectif_salarie": "NN",
     "type_voie": null
    },
    "activite_principale": "68.20B",
    "activite_principale_naf25": "68.20H",
    "categorie_entreprise": "PME",
    "caractere_employeur": null,
    "annee_categorie_entreprise": "2023",
    "date_creation": "1995-01-01",
    "date_fermeture": null,
    "date_mise_a_jour": "2026-07-05T09:07:01",
    "date_mise_a_jour_insee": "2025-12-06T10:45:44",
    "date_mise_a_jour_rne": "2024-05-19T17:01:20",
    "dirigeants": [],
    "etat_administratif": "A",
    "nature_juridique": "3220",
    "section_activite_principale": "L",
    "tranche_effectif_salarie": "NN",
    "annee_tranche_effectif_salarie": null,
    "statut_diffusion": "O",
    "matching_etablissements": [
     {
      "activite_principale": "68.20B",
      "activite_principale_naf25": "68.20H",
      "ancien_siege": false,
      "annee_tranche_effectif_salarie": null,
      "adresse": "2300 CENTER BOULEVARD INTERN HOUSE COPENHAGUE DANEMARK",
      "caractere_employeur": "N",
      "code_postal": null,
      "commune": null,
      "date_creation": "1995-01-01",
      "date_debut_activite": "2008-01-01",
      "date_fermeture": null,
      "epci": null,
      "est_siege": true,
      "etat_administratif": "A",
      "geo_id": null,
      "latitude": null,
      "libelle_commune": null,
      "liste_enseignes": null,
      "liste_finess": null,
      "liste_id_bio": null,
      "liste_idcc": null,
      "liste_id_organisme_formation": null,
      "liste_rge": null,
      "liste_uai": null,
      "longitude": null,
      "nom_commercial": null,
      "region": null,
      "siret": "42425804400017",
      "statut_diffusion_etablissement": "O",
      "tranche_effectif_salarie": "NN"
     },
     {
      "activite_principale": "68.20B",
      "activite_principale_naf25": "68.20H",
      "ancien_siege": false,
      "annee_tranche_effectif_salarie": null,
      "adresse": "LD ESPACE PAX 06590 THEOULE-SUR-MER",
      "caractere_employeur": "N",
      "code_postal": "06590",
      "commune": "06138",
      "date_creation": "1995-01-01",
      "date_debut_activite": "2008-01-01",
      "date_fermeture": null,
      "epci": "200039915",
      "est_siege": false,
      "etat_administratif": "A",
      "geo_id": null,
      "latitude": null,
      "libelle_commune": "THEOULE-SUR-MER",
      "liste_enseignes": null,
      "liste_finess": null,
      "liste_id_bio": null,
      "liste_idcc": null,
      "liste_id_organisme_formation": null,
      "liste_rge": null,
      "liste_uai": null,
      "longitude": null,
      "nom_commercial": null,
      "region": "93",
      "siret": "42425804400025",
      "statut_diffusion_etablissement": "O",
      "tranche_effectif_salarie": "NN"
     }
    ],
    "finances": null,
    "complements": {
     "collectivite_territoriale": null,
     "convention_collective_renseignee": false,
     "liste_idcc": null,
     "liste_finess_juridique": null,
     "egapro_renseignee": false,
     "est_achats_responsables": false,
     "est_alim_confiance": false,
     "est_association": false,
     "est_avocat": false,
     "est_bio": false,
     "est_entrepreneur_individuel": false,
     "est_entrepreneur_spectacle": false,
     "est_ess": false,
     "est_finess": false,
     "est_organisme_formation": false,
     "est_qualiopi": false,
     "liste_id_organisme_formation": null,
     "est_rge": false,
     "est_siae": false,
     "est_societe_mission": false,
     "est_uai": false,
     "est_patrimoine_vivant": false,
     "bilan_ges_renseigne": false,
     "identifiant_association": null,
     "statut_entrepreneur_spectacle": null,
     "type_siae": null,
     "a_aide_minimis": false,
     "a_aide_ademe": false,
     "est_administration": false,
     "est_service_public": null,
     "est_l100_3": null
    },
    "tva": null
   },
   {
    "siren": "992408872",
    "nom_complet": "LOU MAS (LOU MAS)",
    "nom_raison_sociale": "LOU MAS",
    "sigle": null,
    "nombre_etablissements": 1,
    "nombre_etablissements_ouverts": 1,
    "siege": {
     "activite_principale": "56.10A",
     "activite_principale_naf25": "56.11J",
     "activite_principale_registre_metier": null,
     "annee_tranche_effectif_salarie": null,
     "adresse": "70 LE ROURET 06550 LA ROQUETTE-SUR-SIAGNE",
     "caractere_employeur": "N",
     "cedex": null,
     "code_pays_etranger": null,
     "code_postal": "06550",
     "commune": "06108",
     "complement_adresse": null,
     "coordonnees": "43.5921985479739,6.93886519260111",
     "date_creation": "2025-10-15",
     "date_debut_activite": "2025-10-15",
     "date_fermeture": null,
     "date_mise_a_jour": null,
     "date_mise_a_jour_insee": "2025-10-31T14:00:21",
     "departement": "06",
     "distribution_speciale": null,
     "epci": "200039857",
     "est_siege": true,
     "etat_administratif": "A",
     "geo_adresse": null,
     "geo_id": null,
     "indice_repetition": null,
     "latitude": "43.5921985479739",
     "libelle_cedex": null,
     "libelle_commune": "LA ROQUETTE-SUR-SIAGNE",
     "libelle_commune_etranger": null,
     "libelle_pays_etranger": null,
     "libelle_voie": "LE ROURET",
     "liste_enseignes": [
      "LOU MAS"
     ],
     "liste_finess": null,
     "liste_id_bio": null,
     "liste_idcc": null,
     "liste_id_organisme_formation": null,
     "liste_rge": null,
     "liste_uai": null,
     "longitude": "6.93886519260111",
     "nom_commercial": "LOU MAS",
     "numero_voie": "70",
     "dernier_numero_voie": null,
     "region": "93",
     "siret": "99240887200016",
     "statut_diffusion_etablissement": "O",
     "tranche_effectif_salarie": "NN",
     "type_voie": null
    },
    "activite_principale": "56.10A",
    "activite_principale_naf25": "56.11J",
    "categorie_entreprise": null,
    "caractere_employeur": null,
    "annee_categorie_entreprise": null,
    "date_creation": "2025-10-15",
    "date_fermeture": null,
    "date_mise_a_jour": "2026-07-05T11:33:58",
    "date_mise_a_jour_insee": "2025-10-31T14:00:21",
    "date_mise_a_jour_rne": "2024-05-19T17:01:20",
    "dirigeants": [
     {
      "nom": "NAVE",
      "prenoms": "OLIVIER CHRISTOPHE FRANÇOIS",
      "annee_de_naissance": "1995",
      "date_de_naissance": "1995-05",
      "qualite": "Gérant",
      "nationalite": null,
      "type_dirigeant": "personne physique"
     }
    ],
    "etat_administratif": "A",
    "nature_juridique": "5499",
    "section_activite_principale": "I",
    "tranche_effectif_salarie": "NN",
    "annee_tranche_effectif_salarie": null,
    "statut_diffusion": "O",
    "matching_etablissements": [
     {
      "activite_principale": "56.10A",
      "activite_principale_naf25": "56.11J",
      "ancien_siege": false,
      "annee_tranche_effectif_salarie": null,
      "adresse": "70 LE ROURET 06550 LA ROQUETTE-SUR-SIAGNE",
      "caractere_employeur": "N",
      "code_postal": "06550",
      "commune": "06108",
      "date_creation": "2025-10-15",
      "date_debut_activite": "2025-10-15",
      "date_fermeture": null,
      "epci": "200039857",
      "est_siege": true,
      "etat_administratif": "A",
      "geo_id": null,
      "latitude": "43.5921985479739",
      "libelle_commune": "LA ROQUETTE-SUR-SIAGNE",
      "liste_enseignes": [
       "LOU MAS"
      ],
      "liste_finess": null,
      "liste_id_bio": null,
      "liste_idcc": null,
      "liste_id_organisme_formation": null,
      "liste_rge": null,
      "liste_uai": null,
      "longitude": "6.93886519260111",
      "nom_commercial": "LOU MAS",
      "region": "93",
      "siret": "99240887200016",
      "statut_diffusion_etablissement": "O",
      "tranche_effectif_salarie": "NN"
     }
    ],
    "finances": null,
    "complements": {
     "collectivite_territoriale": null,
     "convention_collective_renseignee": false,
     "liste_idcc": null,
     "liste_finess_juridique": null,
     "egapro_renseignee": false,
     "est_achats_responsables": false,
     "est_alim_confiance": false,
     "est_association": false,
     "est_avocat": false,
     "est_bio": false,
     "est_entrepreneur_individuel": false,
     "est_entrepreneur_spectacle": false,
     "est_ess": false,
     "est_finess": false,
     "est_organisme_formation": false,
     "est_qualiopi": false,
     "liste_id_organisme_formation": null,
     "est_rge": false,
     "est_siae": false,
     "est_societe_mission": false,
     "est_uai": false,
     "est_patrimoine_vivant": false,
     "bilan_ges_renseigne": false,
     "identifiant_association": null,
     "statut_entrepreneur_spectacle": null,
     "type_siae": null,
     "a_aide_minimis": false,
     "a_aide_ademe": false,
     "est_administration": false,
     "est_service_public": null,
     "est_l100_3": null
    },
    "tva": [
     "FR02992408872"
    ]
   },
   {
    "siren": "538252131",
    "nom_complet": "LOU MAS",
    "nom_raison_sociale": "LOU MAS",
    "sigle": null,
    "nombre_etablissements": 1,
    "nombre_etablissements_ouverts": 1,
    "siege": {
     "activite_principale": "68.20B",
     "activite_principale_naf25": "68.20H",
     "activite_principale_registre_metier": null,
     "annee_tranche_effectif_salarie": null,
     "adresse": "2020 VALLEE D'INGRES 14600 LA RIVIERE-SAINT-SAUVEUR",
     "caractere_employeur": "N",
     "cedex": null,
     "code_pays_etranger": null,
     "code_postal": "14600",
     "commune": "14536",
     "complement_adresse": null,
     "coordonnees": "49.396187542,0.2684522185",
     "date_creation": "2011-12-01",
     "date_debut_activite": "2011-12-01",
     "date_fermeture": null,
     "date_mise_a_jour": null,
     "date_mise_a_jour_insee": "2025-12-05T20:59:12",
     "departement": "14",
     "distribution_speciale": null,
     "epci": "200066827",
     "est_siege": true,
     "etat_administratif": "A",
     "geo_adresse": null,
     "geo_id": null,
     "indice_repetition": null,
     "latitude": "49.396187542",
     "libelle_cedex": null,
     "libelle_commune": "LA RIVIERE-SAINT-SAUVEUR",
     "libelle_commune_etranger": null,
     "libelle_pays_etranger": null,
     "libelle_voie": "VALLEE D'INGRES",
     "liste_enseignes": null,
     "liste_finess": null,
     "liste_id_bio": null,
     "liste_idcc": null,
     "liste_id_organisme_formation": null,
     "liste_rge": null,
     "liste_uai": null,
     "longitude": "0.2684522185",
     "nom_commercial": null,
     "numero_voie": "2020",
     "dernier_numero_voie": null,
     "region": "28",
     "siret": "53825213100015",
     "statut_diffusion_etablissement": "O",
     "tranche_effectif_salarie": "NN",
     "type_voie": null
    },
    "activite_principale": "68.20B",
    "activite_principale_naf25": "68.20H",
    "categorie_entreprise": null,
    "caractere_employeur": null,
    "annee_categorie_entreprise": null,
    "date_creation": "2011-12-01",
    "date_fermeture": null,
    "date_mise_a_jour": "2026-07-05T09:55:30",
    "date_mise_a_jour_insee": "2025-12-06T09:14:48",
    "date_mise_a_jour_rne": "2024-05-19T17:01:20",
    "dirigeants": [
     {
      "nom": "LOUVEL",
      "prenoms": "JEAN-PIERRE ROBERT GHISLAIN",
      "annee_de_naissance": "1950",
      "date_de_naissance": "1950-12",
      "qualite": "Gérant et associé indéfiniment responsable",
      "nationalite": null,
      "type_dirigeant": "personne physique"
     },
     {
      "nom": "LOUVEL (ULRICH)",
      "prenoms": "AUGUSTINE MARIE CHANTAL",
      "annee_de_naissance": "1948",
      "date_de_naissance": "1948-07",
      "qualite": "Autre",
      "nationalite": null,
      "type_dirigeant": "personne physique"
     }
    ],
    "etat_administratif": "A",
    "nature_juridique": "6540",
    "section_activite_principale": "L",
    "tranche_effectif_salarie": "NN",
    "annee_tranche_effectif_salarie": null,
    "statut_diffusion": "O",
    "matching_etablissements": [
     {
      "activite_principale": "68.20B",
      "activite_principale_naf25": "68.20H",
      "ancien_siege": false,
      "annee_tranche_effectif_salarie": null,
      "adresse": "2020 VALLEE D'INGRES 14600 LA RIVIERE-SAINT-SAUVEUR",
      "caractere_employeur": "N",
      "code_postal": "14600",
      "commune": "14536",
      "date_creation": "2011-12-01",
      "date_debut_activite": "2011-12-01",
      "date_fermeture": null,
      "epci": "200066827",
      "est_siege": true,
      "etat_administratif": "A",
      "geo_id": null,
      "latitude": "49.396187542",
      "libelle_commune": "LA RIVIERE-SAINT-SAUVEUR",
      "liste_enseignes": null,
      "liste_finess": null,
      "liste_id_bio": null,
      "liste_idcc": null,
      "liste_id_organisme_formation": null,
      "liste_rge": null,
      "liste_uai": null,
      "longitude": "0.2684522185",
      "nom_commercial": null,
      "region": "28",
      "siret": "53825213100015",
      "statut_diffusion_etablissement": "O",
      "tranche_effectif_salarie": "NN"
     }
    ],
    "finances": null,
    "complements": {
     "collectivite_territoriale": null,
     "convention_collective_renseignee": false,
     "liste_idcc": null,
     "liste_finess_juridique": null,
     "egapro_renseignee": false,
     "est_achats_responsables": false,
     "est_alim_confiance": false,
     "est_association": false,
     "est_avocat": false,
     "est_bio": false,
     "est_entrepreneur_individuel": false,
     "est_entrepreneur_spectacle": false,
     "est_ess": false,
     "est_finess": false,
     "est_organisme_formation": false,
     "est_qualiopi": false,
     "liste_id_organisme_formation": null,
     "est_rge": false,
     "est_siae": false,
     "est_societe_mission": false,
     "est_uai": false,
     "est_patrimoine_vivant": false,
     "bilan_ges_renseigne": false,
     "identifiant_association": null,
     "statut_entrepreneur_spectacle": null,
     "type_siae": null,
     "a_aide_minimis": false,
     "a_aide_ademe": false,
     "est_administration": false,
     "est_service_public": null,
     "est_l100_3": null
    },
    "tva": null
   },
   {
    "siren": "479497711",
    "nom_complet": "LOU MAS",
    "nom_raison_sociale": "LOU MAS",
    "sigle": null,
    "nombre_etablissements": 2,
    "nombre_etablissements_ouverts": 1,
    "siege": {
     "activite_principale": "68.20B",
     "activite_principale_naf25": "68.20H",
     "activite_principale_registre_metier": null,
     "annee_tranche_effectif_salarie": null,
     "adresse": "LES BORELS CASTELJAU 07460 BERRIAS-ET-CASTELJAU",
     "caractere_employeur": "N",
     "cedex": null,
     "code_pays_etranger": null,
     "code_postal": "07460",
     "commune": "07031",
     "complement_adresse": null,
     "coordonnees": null,
     "date_creation": "2017-08-01",
     "date_debut_activite": "2017-08-01",
     "date_fermeture": null,
     "date_mise_a_jour": null,
     "date_mise_a_jour_insee": "2025-12-06T04:32:50",
     "departement": "07",
     "distribution_speciale": null,
     "epci": "200039832",
     "est_siege": true,
     "etat_administratif": "A",
     "geo_adresse": null,
     "geo_id": null,
     "indice_repetition": null,
     "latitude": null,
     "libelle_cedex": null,
     "libelle_commune": "BERRIAS-ET-CASTELJAU",
     "libelle_commune_etranger": null,
     "libelle_pays_etranger": null,
     "libelle_voie": "LES BORELS CASTELJAU",
     "liste_enseignes": null,
     "liste_finess": null,
     "liste_id_bio": null,
     "liste_idcc": null,
     "liste_id_organisme_formation": null,
     "liste_rge": null,
     "liste_uai": null,
     "longitude": null,
     "nom_commercial": null,
     "numero_voie": null,
     "dernier_numero_voie": null,
     "region": "84",
     "siret": "47949771100024",
     "statut_diffusion_etablissement": "O",
     "tranche_effectif_salarie": "NN",
     "type_voie": null
    },
    "activite_principale": "68.20B",
    "activite_principale_naf25": "68.20H",
    "categorie_entreprise": null,
    "caractere_employeur": null,
    "annee_categorie_entreprise": null,
    "date_creation": "2004-11-08",
    "date_fermeture": null,
    "date_mise_a_jour": "2026-07-05T09:24:25",
    "date_mise_a_jour_insee": "2025-12-06T06:44:08",
    "date_mise_a_jour_rne": "2024-05-19T17:01:20",
    "dirigeants": [
     {
      "nom": "RABOUIN",
      "prenoms": "GUILLAUME",
      "annee_de_naissance": "1978",
      "date_de_naissance": "1978-02",
      "qualite": "Autre",
      "nationalite": null,
      "type_dirigeant": "personne physique"
     },
     {
      "nom": "RABOUIN",
      "prenoms": "JULIEN",
      "annee_de_naissance": "1980",
      "date_de_naissance": "1980-11",
      "qualite": "Autre",
      "nationalite": null,
      "type_dirigeant": "personne physique"
     },
     {
      "nom": "RABOUIN",
      "prenoms": "PHILIPPE",
      "annee_de_naissance": "1957",
      "date_de_naissance": "1957-09",
      "qualite": "Gérant",
      "nationalite": null,
      "type_dirigeant": "personne physique"
     }
    ],
    "etat_administratif": "A",
    "nature_juridique": "6540",
    "section_activite_principale": "L",
    "tranche_effectif_salarie": "NN",
    "annee_tranche_effectif_salarie": null,
    "statut_diffusion": "O",
    "matching_etablissements": [
     {
      "activite_principale": "68.20B",
      "activite_principale_naf25": "68.20H",
      "ancien_siege": false,
      "annee_tranche_effectif_salarie": null,
      "adresse": "LES BORELS CASTELJAU 07460 BERRIAS-ET-CASTELJAU",
      "caractere_employeur": "N",
      "code_postal": "07460",
      "commune": "07031",
      "date_creation": "2017-08-01",
      "date_debut_activite": "2017-08-01",
      "date_fermeture": null,
      "epci": "200039832",
      "est_siege": true,
      "etat_administratif": "A",
      "geo_id": null,
      "latitude": null,
      "libelle_commune": "BERRIAS-ET-CASTELJAU",
      "liste_enseignes": null,
      "liste_finess": null,
      "liste_id_bio": null,
      "liste_idcc": null,
      "liste_id_organisme_formation": null,
      "liste_rge": null,
      "liste_uai": null,
      "longitude": null,
      "nom_commercial": null,
      "region": "84",
      "siret": "47949771100024",
      "statut_diffusion_etablissement": "O",
      "tranche_effectif_salarie": "NN"
     },
     {
      "activite_principale": "68.20B",
      "activite_principale_naf25": null,
      "ancien_siege": true,
      "annee_tranche_effectif_salarie": null,
      "adresse": "2 RUE FELIX FAURE 38300 BOURGOIN-JALLIEU",
      "caractere_employeur": "N",
      "code_postal": "38300",
      "commune": "38053",
      "date_creation": "2004-11-08",
      "date_debut_activite": "2017-08-01",
      "date_fermeture": "2017-08-01",
      "epci": "243800604",
      "est_siege": false,
      "etat_administratif": "F",
      "geo_id": null,
      "latitude": "45.586258081",
      "libelle_commune": "BOURGOIN-JALLIEU",
      "liste_enseignes": null,
      "liste_finess": null,
      "liste_id_bio": null,
      "liste_idcc": null,
      "liste_id_organisme_formation": null,
      "liste_rge": null,
      "liste_uai": null,
      "longitude": "5.2765513136",
      "nom_commercial": null,
      "region": "84",
      "siret": "47949771100016",
      "statut_diffusion_etablissement": "O",
      "tranche_effectif_salarie": "NN"
     }
    ],
    "finances": null,
    "complements": {
     "collectivite_territoriale": null,
     "convention_collective_renseignee": false,
     "liste_idcc": null,
     "liste_finess_juridique": null,
     "egapro_renseignee": false,
     "est_achats_responsables": false,
     "est_alim_confiance": false,
     "est_association": false,
     "est_avocat": false,
     "est_bio": false,
     "est_entrepreneur_individuel": false,
     "est_entrepreneur_spectacle": false,
     "est_ess": false,
     "est_finess": false,
     "est_organisme_formation": false,
     "est_qualiopi": false,
     "liste_id_organisme_formation": null,
     "est_rge": false,
     "est_siae": false,
     "est_societe_mission": false,
     "est_uai": false,
     "est_patrimoine_vivant": false,
     "bilan_ges_renseigne": false,
     "identifiant_association": null,
     "statut_entrepreneur_spectacle": null,
     "type_siae": null,
     "a_aide_minimis": false,
     "a_aide_ademe": false,
     "est_administration": false,
     "est_service_public": null,
     "est_l100_3": null
    },
    "tva": null
   },
   {
    "siren": "493660831",
    "nom_complet": "LOU MAS",
    "nom_raison_sociale": "LOU MAS",
    "sigle": null,
    "nombre_etablissements": 1,
    "nombre_etablissements_ouverts": 0,
    "siege": {
     "activite_principale": "56.10A",
     "activite_principale_naf25": null,
     "activite_principale_registre_metier": null,
     "annee_tranche_effectif_salarie": null,
     "adresse": "QUART GRAND CAGNON CHE DE CLOS CAVALIER 84100 ORANGE",
     "caractere_employeur": "O",
     "cedex": null,
     "code_pays_etranger": null,
     "code_postal": "84100",
     "commune": "84087",
     "complement_adresse": "QUART GRAND CAGNON",
     "coordonnees": "44.166546312,4.8389382918",
     "date_creation": "2006-12-20",
     "date_debut_activite": "2010-05-27",
     "date_fermeture": "2010-05-27",
     "date_mise_a_jour": null,
     "date_mise_a_jour_insee": "2024-03-22T15:40:57",
     "departement": "84",
     "distribution_speciale": null,
     "epci": "248400236",
     "est_siege": true,
     "etat_administratif": "F",
     "geo_adresse": null,
     "geo_id": null,
     "indice_repetition": null,
     "latitude": "44.166546312",
     "libelle_cedex": null,
     "libelle_commune": "ORANGE",
     "libelle_commune_etranger": null,
     "libelle_pays_etranger": null,
     "libelle_voie": "DE CLOS CAVALIER",
     "liste_enseignes": null,
     "liste_finess": null,
     "liste_id_bio": null,
     "liste_idcc": null,
     "liste_id_organisme_formation": null,
     "liste_rge": null,
     "liste_uai": null,
     "longitude": "4.8389382918",
     "nom_commercial": null,
     "numero_voie": null,
     "dernier_numero_voie": null,
     "region": "93",
     "siret": "49366083100014",
     "statut_diffusion_etablissement": "O",
     "tranche_effectif_salarie": "NN",
     "type_voie": "CHE"
    },
    "activite_principale": "56.10A",
    "activite_principale_naf25": null,
    "categorie_entreprise": null,
    "caractere_employeur": null,
    "annee_categorie_entreprise": null,
    "date_creation": "2006-12-20",
    "date_fermeture": "2021-09-14",
    "date_mise_a_jour": "2026-07-05T09:32:36",
    "date_mise_a_jour_insee": "2024-03-22T14:26:06",
    "date_mise_a_jour_rne": "2024-05-19T17:01:20",
    "dirigeants": [
     {
      "nom": "VOILQUE",
      "prenoms": "SEBASTIEN",
      "annee_de_naissance": "1973",
      "date_de_naissance": "1973-10",
      "qualite": "Gérant",
      "nationalite": null,
      "type_dirigeant": "personne physique"
     }
    ],
    "etat_administratif": "C",
    "nature_juridique": "5499",
    "section_activite_principale": "I",
    "tranche_effectif_salarie": "NN",
    "annee_tranche_effectif_salarie": null,
    "statut_diffusion": "O",
    "matching_etablissements": [
     {
      "activite_principale": "56.10A",
      "activite_principale_naf25": null,
      "ancien_siege": false,
      "annee_tranche_effectif_salarie": null,
      "adresse": "QUART GRAND CAGNON CHE DE CLOS CAVALIER 84100 ORANGE",
      "caractere_employeur": "O",
      "code_postal": "84100",
      "commune": "84087",
      "date_creation": "2006-12-20",
      "date_debut_activite": "2010-05-27",
      "date_fermeture": "2010-05-27",
      "epci": "248400236",
      "est_siege": true,
      "etat_administratif": "F",
      "geo_id": null,
      "latitude": "44.166546312",
      "libelle_commune": "ORANGE",
      "liste_enseignes": null,
      "liste_finess": null,
      "liste_id_bio": null,
      "liste_idcc": null,
      "liste_id_organisme_formation": null,
      "liste_rge": null,
      "liste_uai": null,
      "longitude": "4.8389382918",
      "nom_commercial": null,
      "region": "93",
      "siret": "49366083100014",
      "statut_diffusion_etablissement": "O",
      "tranche_effectif_salarie": "NN"
     }
    ],
    "finances": null,
    "complements": {
     "collectivite_territoriale": null,
     "convention_collective_renseignee": false,
     "liste_idcc": null,
     "liste_finess_juridique": null,
     "egapro_renseignee": false,
     "est_achats_responsables": false,
     "est_alim_confiance": false,
     "est_association": false,
     "est_avocat": false,
     "est_bio": false,
     "est_entrepreneur_individuel": false,
     "est_entrepreneur_spectacle": false,
     "est_ess": false,
     "est_finess": false,
     "est_organisme_formation": false,
     "est_qualiopi": false,
     "liste_id_organisme_formation": null,
     "est_rge": false,
     "est_siae": false,
     "est_societe_mission": false,
     "est_uai": false,
     "est_patrimoine_vivant": false,
     "bilan_ges_renseigne": false,
     "identifiant_association": null,
     "statut_entrepreneur_spectacle": null,
     "type_siae": null,
     "a_aide_minimis": false,
     "a_aide_ademe": false,
     "est_administration": false,
     "est_service_public": null,
     "est_l100_3": null
    },
    "tva": null
   }
  ],
  "total_results": 439,
  "page": 1,
  "per_page": 5,
  "total_pages": 88
 }
}